<svg xmlns="http://www.w3.org/2000/svg" width="356" height="250" viewBox="0 0 356 250">
  <g id="guide-book" transform="translate(-843 -259)">
    <g id="Group_17" data-name="Group 17">
      <path id="Subtraction_2" data-name="Subtraction 2" d="M-223.107,39.067h0l-4.827-9.3c-.614.044-1.234.066-1.841.066a25.39,25.39,0,0,1-5.74-.657l-6.312,8.365-7.831-3.991,3.16-9.982a25.584,25.584,0,0,1-4.927-5.786l-10.395,1.454-2.713-8.356,9.324-4.847a25.251,25.251,0,0,1,.617-7.538l-8.476-6.217,3.991-7.831,10.1,3.1a25.051,25.051,0,0,1,5.752-4.9l-1.6-10.442,8.355-2.717,4.975,9.378c.589-.041,1.185-.062,1.77-.062a25.715,25.715,0,0,1,5.718.649l4.09-5.576V-3.105a12.131,12.131,0,0,0-4.24-3.556A12.124,12.124,0,0,0-229.712-8,12.208,12.208,0,0,0-240.64-1.307a12.269,12.269,0,0,0,5.353,16.484,12.13,12.13,0,0,0,5.556,1.339,12.312,12.312,0,0,0,9.812-4.9V38.033l-3.187,1.034Z" transform="translate(1142.919 415)" fill="none" stroke="#09a129" stroke-linejoin="round" stroke-width="6"/>
      <path id="Subtraction_1" data-name="Subtraction 1" d="M-52.479-48.593h-8.789L-63-58.974a25.233,25.233,0,0,1-4-1.346V-76.938a12.244,12.244,0,0,0,10.2,5.452,12.175,12.175,0,0,0,8.666-3.589,12.168,12.168,0,0,0,3.587-8.668A12.267,12.267,0,0,0-56.8-96,12.246,12.246,0,0,0-67-90.544v-16.62a25.519,25.519,0,0,1,4.04-1.356l1.691-10.375h8.789l1.826,10.407a25.05,25.05,0,0,1,6.974,2.9l8.577-6.168,6.214,6.21-6.1,8.69a25.6,25.6,0,0,1,2.876,6.939l10.456,1.706v8.793l-10.46,1.83a25.411,25.411,0,0,1-2.869,6.949l6.188,8.6L-35-55.825l-8.672-6.089A25.462,25.462,0,0,1-50.636-59l-1.843,10.406Z" transform="translate(1193 415)" fill="none" stroke="#09a129" stroke-linejoin="round" stroke-width="6"/>
      <g id="Polygon_3" data-name="Polygon 3" transform="matrix(0.875, -0.485, 0.485, 0.875, 1143.457, 409.346)" fill="none">
        <path d="M9.323,1.593a1,1,0,0,1,1.752,0l8.508,15.469a1,1,0,0,1-.876,1.482H1.691a1,1,0,0,1-.876-1.482Z" stroke="none"/>
        <path d="M 10.19929313659668 4.150075912475586 L 3.382537841796875 16.54418563842773 L 17.01604843139648 16.54418563842773 L 10.19929313659668 4.150075912475586 M 10.19929313659668 1.075038909912109 C 10.54242038726807 1.075038909912109 10.88554859161377 1.247734069824219 11.07551288604736 1.593124389648438 L 19.58353233337402 17.06226539611816 C 19.95008277893066 17.72871398925781 19.46792221069336 18.54418563842773 18.70731353759766 18.54418563842773 L 1.691272735595703 18.54418563842773 C 0.9306640625 18.54418563842773 0.4485034942626953 17.72871398925781 0.8150539398193359 17.06226539611816 L 9.323073387145996 1.593124389648438 C 9.51303768157959 1.247734069824219 9.856165885925293 1.075038909912109 10.19929313659668 1.075038909912109 Z" stroke="none" fill="#09a129"/>
      </g>
      <path id="Polygon_2" data-name="Polygon 2" d="M10.249,1.609a1,1,0,0,1,1.756,0l9.442,17.31a1,1,0,0,1-.878,1.479H1.685A1,1,0,0,1,.807,18.92Z" transform="matrix(-0.259, -0.966, 0.966, -0.259, 875.12, 357.944)" fill="#09a129"/>
      <path id="Polygon_4" data-name="Polygon 4" d="M10.249,1.609a1,1,0,0,1,1.756,0l9.442,17.31a1,1,0,0,1-.878,1.479H1.685A1,1,0,0,1,.807,18.92Z" transform="translate(1169.888 302.82) rotate(-104)" fill="#09a129"/>
      <g id="Ellipse_2" data-name="Ellipse 2" transform="translate(888 290)" fill="none" stroke="#09a129" stroke-width="2">
        <circle cx="6.5" cy="6.5" r="6.5" stroke="none"/>
        <circle cx="6.5" cy="6.5" r="5.5" fill="none"/>
      </g>
      <g id="Ellipse_6" data-name="Ellipse 6" transform="translate(843 454)" fill="none" stroke="#09a129" stroke-width="2">
        <circle cx="6.5" cy="6.5" r="6.5" stroke="none"/>
        <circle cx="6.5" cy="6.5" r="5.5" fill="none"/>
      </g>
      <g id="Ellipse_5" data-name="Ellipse 5" transform="translate(1186 432)" fill="none" stroke="#09a129" stroke-width="2">
        <circle cx="6.5" cy="6.5" r="6.5" stroke="none"/>
        <circle cx="6.5" cy="6.5" r="5.5" fill="none"/>
      </g>
      <g id="Ellipse_3" data-name="Ellipse 3" transform="translate(1177 371)" fill="none" stroke="#292f36" stroke-width="2">
        <circle cx="6.5" cy="6.5" r="6.5" stroke="none"/>
        <circle cx="6.5" cy="6.5" r="5.5" fill="none"/>
      </g>
      <g id="Ellipse_8" data-name="Ellipse 8" transform="translate(1144 263)" fill="none" stroke="#292f36" stroke-width="2">
        <circle cx="6.5" cy="6.5" r="6.5" stroke="none"/>
        <circle cx="6.5" cy="6.5" r="5.5" fill="none"/>
      </g>
      <g id="Ellipse_4" data-name="Ellipse 4" transform="translate(856 309)" fill="none" stroke="#292f36" stroke-width="2">
        <circle cx="6.5" cy="6.5" r="6.5" stroke="none"/>
        <circle cx="6.5" cy="6.5" r="5.5" fill="none"/>
      </g>
      <g id="Ellipse_7" data-name="Ellipse 7" transform="translate(878 475)" fill="none" stroke="#292f36" stroke-width="2">
        <circle cx="6.5" cy="6.5" r="6.5" stroke="none"/>
        <circle cx="6.5" cy="6.5" r="5.5" fill="none"/>
      </g>
    </g>
    <g id="Group_13" data-name="Group 13">
      <path id="guide_book" data-name="guide book" d="M231.01,123.535v-104H69.734A9.766,9.766,0,0,0,59.99,29.3V193.086a29.041,29.041,0,0,1,9.745-1.68h9.745V48.828a9.745,9.745,0,1,1,19.49,0V191.406H231.01V172.363a9.745,9.745,0,1,1,19.49,0v28.809a9.755,9.755,0,0,1-9.745,9.766H69.734a9.766,9.766,0,0,0,0,19.531H240.755a9.766,9.766,0,0,1,0,19.531H69.734A29.3,29.3,0,0,1,40.5,220.7V29.3A29.3,29.3,0,0,1,69.734,0H240.755A9.755,9.755,0,0,1,250.5,9.766v113.77a9.745,9.745,0,1,1-19.49,0Z" transform="translate(878.5 259)" fill="#292f36"/>
      <g id="question" transform="translate(1002.66 317)">
        <path id="Path_3" data-name="Path 3" d="M36.506,0C53.555,0,70.34,7.966,70.34,27.02c0,17.571-19.847,24.329-24.109,30.678-3.2,4.723-2.131,11.359-10.923,11.359-5.727,0-8.525-4.726-8.525-9.05,0-16.092,23.3-19.733,23.3-32.984,0-7.293-4.784-11.617-12.781-11.617-17.049,0-10.392,17.833-23.3,17.833C9.341,33.239,5.34,30.4,5.34,25,5.337,11.745,20.252,0,36.506,0Zm-.663,77.83A11.086,11.086,0,1,1,24.916,88.915,11.056,11.056,0,0,1,35.842,77.83Z" fill="#09a129"/>
      </g>
    </g>
  </g>
</svg>
