<svg xmlns="http://www.w3.org/2000/svg" width="80" height="105.69" viewBox="0 0 80 105.69">
  <path id="tinder-icon" d="M267.265,99.9c.931.712,1.74,1.589,2.63,2.356a133.4,133.4,0,0,1,21.342,25.329,84.636,84.636,0,0,1,12.109,29.644,60.718,60.718,0,0,1,.808,17.6,36.21,36.21,0,0,1-1.493,7.247,39.465,39.465,0,0,1-4.507,9.685,27.452,27.452,0,0,1-6.274,6.74,30.083,30.083,0,0,1-8.986,4.562,55.38,55.38,0,0,1-12.329,2.247,74.528,74.528,0,0,1-14.931-.192,45.958,45.958,0,0,1-16.192-4.89,28.4,28.4,0,0,1-11.315-10.753,30.327,30.327,0,0,1-3.548-17.507,53.59,53.59,0,0,1,5.205-18.315,92.626,92.626,0,0,1,8.342-14.123,105.376,105.376,0,0,1,8.781-10.808c.055-.041.164-.137.233-.178a27.788,27.788,0,0,0,1.041,8.493,21.89,21.89,0,0,0,4.123,7.712c.11.137.192.329.4.356a51.381,51.381,0,0,0,10.918-10.6,33.076,33.076,0,0,0,5.986-14.466A39.044,39.044,0,0,0,267.265,99.9Z" transform="translate(-224.466 -99.9)" fill="#09a129"/>
</svg>
